{
    "type": "root",
    "subitems": [
        {
            "type": "menu",
            "displayname": "General",
            "name": "General",
            "subitems": [
                {
                    "type": "bool",
                    "name": "DeveloperMode",
                    "displayname": "Enable Developer mode",
                    "description": "",
                    "defaultvalue": false
                },
                {
                    "type": "bool",
                    "name": "EnablePressureSounds ",
                    "displayname": "Enable Sound pressure feedback",
                    "description": "",
                    "defaultvalue": false
                },
                {
                    "type": "number",
                    "name": "LendoltProbability",
                    "displayname": "Lendolt probability",
                    "description": "",
                    "defaultvalue": 0.12
                },
                {
                    "type": "number",
                    "name": "HeightRectActuationPoint",
                    "displayname": "Height rect actuation point",
                    "description": "",
                    "defaultvalue": 0
                },
                {
                    "type": "number",
                    "name": "HeightRectReleasePoint",
                    "displayname": "Height rect release point",
                    "description": "",
                    "defaultvalue": 0
                }
            ]
        },
        {
            "type": "menu",
            "name": "Graphics",
            "displayname": "Graphics",
            "subitems": [
                {
                    "type": "bool",
                    "name": "EnableToggleFullScreen",
                    "displayname": "Enable Fullscreen",
                    "description": "Enables working in full screen",
                    "defaultvalue": false
                },
                {
                    "type": "bool",
                    "name": "EnableVSync",
                    "displayname": "Enable vertical sync",
                    "description": "Forces the render window to synchronize with the monitor's vertical refresh",
                    "defaultvalue": true
                },
                {
                    "type": "bool",
                    "name": "ExclusiveMode",
                    "displayname": "Enable Fullscreen exclusive mode",
                    "description": "Enables working in full screen",
                    "defaultvalue": false
                },
                {
                    "type": "bool",
                    "name": "ShowFPS",
                    "displayname": "Show fps counter",
                    "description": "The image to display in the background",
                    "defaultvalue": false
                },
                {
                    "type": "number",
                    "name": "ForceWorkingOnPrimaryScreen",
                    "displayname": "Force working on specific monitor",
                    "description": "Index of the monitor to run experiment on",
                },
                {
                    "type": "bool",
                    "name": "UseFlipMode",
                    "displayname": "Enable Flip mode",
                    "description": "Enable Direct3D11 flip model(windows 8.1 and higher)",
                    "defaultvalue": true
                }
            ]
        },
        {
            "type": "menu",
            "name": "Input",
            "displayname": "Input settings",
            "subitems": [
                {
                    "type": "bool",
                    "name": "EnableMouseControl",
                    "displayname": "Enable mouse",
                    "description": "set to enable input from mouse",
                    "defaultvalue": false

                },
                {
                    "type": "number",
                    "name": "MousePollingRate",
                    "displayname": "Mouse Polling Rate",
                    "description": "Set to enable input for joystick/gamepad devices",
                    "defaultvalue": 50
                },
                {
                    "type": "bool",
                    "name": "EnableTabletControl",
                    "displayname": "Enable Tablet digitizer",
                    "description": "Set to enable input from wacom digitizer",
                    "defaultvalue": true
                },
                {
                    "type": "number",
                    "name": "DigitizerPollingRate",
                    "displayname": "Digitizer Polling Rate",
                    "description": "Set to enable input for joystick/gamepad devices",
                    "defaultvalue": 200.0
                },
                {
                    "type": "bool",
                    "name": "EnableJoyStick",
                    "displayname": "Enable joystick",
                    "description": "Set to enable input for joystick/gamepad devices",
                    "defaultvalue": true
                },
                {
                    "type": "number",
                    "name": "JoystickPollingRate",
                    "displayname": "Joystick Polling Rate",
                    "description": "Set to enable input for joystick/gamepad devices",
                    "defaultvalue": 50.0
                },
                {
                    "type": "bool",
                    "name": "EnableSensors",
                    "displayname": "Enable joystick",
                    "description": "Set to enable input for joystick/gamepad devices",
                    "defaultvalue": true
                },
                {
                    "type": "number",
                    "name": "SensorsPollingRate",
                    "displayname": "Sensors Polling Rate",
                    "description": "Set to enable input for joystick/gamepad devices",
                    "defaultvalue": 50.0
                },
                {
                    "type": "number",
                    "name": "MaxInputPressure",
                    "displayname": "Maximum input pressure",
                    "description": "Set to enable input for joystick/gamepad devices",
                    "defaultvalue": 1.0
                },
                {
                    "type": "number",
                    "name": "MaxInputHeight",
                    "displayname": "Maximum input height",
                    "description": "Set to enable input for joystick/gamepad devices",
                    "defaultvalue": 1.0
                }

            ]
        },
        {
            "type": "menu",
            "name": "Experiment",
            "displayname": "Experiment behaviour",
            "subitems": [
                {
                    "type": "color",
                    "name": "PenMasterColor",
                    "displayname": "Pen master color",
                    "description": "The color of the master pen",
                    "defaultvalue": "Blue"
                },

                {
                    "type": "color",
                    "name": "LendoltColor",
                    "displayname": "Lendolt color",
                    "description": "The color of the lendolt-C",
                    "defaultvalue": "Black"
                }

            ]
        }
    ]
}
